…
Look for Potential Explanatory Variables
----------------------------------------

Carnegie Basic vs. Repayment Rate

``` r
train %>% group_by(school__carnegie_basic) %>% 
  summarise(med = median(repayment_rate)) %>% arrange(med)
```

    ## # A tibble: 35 x 2
    ##                                                         school__carnegie_basic
    ##                                                                          <chr>
    ##  1                   Special Focus Four-Year: Other Technology-Related Schools
    ##  2                                        Special Focus Two-Year: Other Fields
    ##  3         Baccalaureate/Associate's Colleges: Mixed Baccalaureate/Associate's
    ##  4                    Baccalaureate/Associate's Colleges: Associate's Dominant
    ##  5                                  Special Focus Two-Year: Health Professions
    ##  6 Associate's Colleges: High Vocational & Technical-Mixed Traditional/Nontrad
    ##  7                                                             Tribal Colleges
    ##  8       Associate's Colleges: High Vocational & Technical-High Nontraditional
    ##  9                                       Special Focus Two-Year: Arts & Design
    ## 10                      Special Focus Four-Year: Business & Management Schools
    ## # ... with 25 more rows, and 1 more variables: med <dbl>
…
